[
	{
		"model":"ovc_org.SetupGeorgraphy",
		"pk":1,
		"fields":{
			"area_id":1,
			"area_type_id":"province",
			"area_name":"Southern"
			
		}
		
	},
	{
		"model":"ovc_org.SetupGeorgraphy",
		"pk":2,
		"fields":{
			"area_id":2,
			"area_type_id":"province",
			"area_name":"Copperbelt"
			
		}
		
	},
	{
		"model":"ovc_org.SetupGeorgraphy",
		"pk":3,
		"fields":{
			"area_id":3,
			"area_type_id":"province",
			"area_name":"Lusaka"
			
		}
		
	},
	{
		"model":"ovc_org.SetupGeorgraphy",
		"pk":12,
		"fields":{
			"area_id":12,
			"area_type_id":"district",
			"area_name":"Namwala",
			"parent_area_id":1
		}
		
	},
	{
		"model":"ovc_org.SetupGeorgraphy",
		"pk":13,
		"fields":{
			"area_id":13,
			"area_type_id":"district",
			"area_name":"Ndola",
			"parent_area_id":2
		}
		
	},
	{
		"model":"ovc_org.SetupGeorgraphy",
		"pk":14,
		"fields":{
			"area_id":14,
			"area_type_id":"district",
			"area_name":"Lusaka",
			"parent_area_id":3
		}
		
	},
	{
		"model":"ovc_org.SetupGeorgraphy",
		"pk":201,
		"fields":{
			"area_id":201,
			"area_type_id":"constituency",
			"area_name":"Namwala",
			"parent_area_id":12
		}
		
	},
	{
		"model":"ovc_org.SetupGeorgraphy",
		"pk":202,
		"fields":{
			"area_id":202,
			"area_type_id":"constituency",
			"area_name":"Bwana Mkubwa",
			"parent_area_id":13
		}
		
	},
	{
		"model":"ovc_org.SetupGeorgraphy",
		"pk":203,
		"fields":{
			"area_id":203,
			"area_type_id":"constituency",
			"area_name":"Chifubu",
			"parent_area_id":13
		}
		
	},
	{
		"model":"ovc_org.SetupGeorgraphy",
		"pk":204,
		"fields":{
			"area_id":204,
			"area_type_id":"constituency",
			"area_name":"Kabushi",
			"parent_area_id":13
		}
		
	},
	{
		"model":"ovc_org.SetupGeorgraphy",
		"pk":205,
		"fields":{
			"area_id":205,
			"area_type_id":"constituency",
			"area_name":"Ndola",
			"parent_area_id":13
		}
		
	},
	{
		"model":"ovc_org.SetupGeorgraphy",
		"pk":206,
		"fields":{
			"area_id":206,
			"area_type_id":"constituency",
			"area_name":"Chawama",
			"parent_area_id":14
		}
		
	},
	{
		"model":"ovc_org.SetupGeorgraphy",
		"pk":207,
		"fields":{
			"area_id":207,
			"area_type_id":"constituency",
			"area_name":"Kabwata",
			"parent_area_id":14
		}
		
	},
	{
		"model":"ovc_org.SetupGeorgraphy",
		"pk":208,
		"fields":{
			"area_id":208,
			"area_type_id":"constituency",
			"area_name":"Kanyama",
			"parent_area_id":14
		}
		
	},
	{
		"model":"ovc_org.SetupGeorgraphy",
		"pk":209,
		"fields":{
			"area_id":209,
			"area_type_id":"constituency",
			"area_name":"Lusaka Central",
			"parent_area_id":14
		}
		
	},
	{
		"model":"ovc_org.SetupGeorgraphy",
		"pk":210,
		"fields":{
			"area_id":210,
			"area_type_id":"constituency",
			"area_name":"Mandevu",
			"parent_area_id":14
		}
		
	},
	{
		"model":"ovc_org.SetupGeorgraphy",
		"pk":211,
		"fields":{
			"area_id":211,
			"area_type_id":"constituency",
			"area_name":"Matero",
			"parent_area_id":14
		}
		
	},
	{
		"model":"ovc_org.SetupGeorgraphy",
		"pk":212,
		"fields":{
			"area_id":212,
			"area_type_id":"constituency",
			"area_name":"Munali",
			"parent_area_id":14
		}
		
	},
	{
		"model":"ovc_org.SetupGeorgraphy",
		"pk":501,
		"fields":{
			"area_id":501,
			"area_type_id":"ward",
			"area_name":"Namwala Central",
			"parent_area_id":201
		}
		
	},
	{
		"model":"ovc_org.SetupGeorgraphy",
		"pk":502,
		"fields":{
			"area_id":502,
			"area_type_id":"ward",
			"area_name":"Ngabo",
			"parent_area_id":201
		}
		
	},
	{
		"model":"ovc_org.SetupGeorgraphy",
		"pk":503,
		"fields":{
			"area_id":503,
			"area_type_id":"ward",
			"area_name":"Baambwe",
			"parent_area_id":201
		}
		
	},
	{
		"model":"ovc_org.SetupGeorgraphy",
		"pk":504,
		"fields":{
			"area_id":504,
			"area_type_id":"ward",
			"area_name":"Maala",
			"parent_area_id":201
		}
		
	},
	{
		"model":"ovc_org.SetupGeorgraphy",
		"pk":505,
		"fields":{
			"area_id":505,
			"area_type_id":"ward",
			"area_name":"Kantengwa",
			"parent_area_id":201
		}
		
	},
	{
		"model":"ovc_org.SetupGeorgraphy",
		"pk":506,
		"fields":{
			"area_id":506,
			"area_type_id":"ward",
			"area_name":"Kabulamwanda",
			"parent_area_id":201
		}
		
	},
	{
		"model":"ovc_org.SetupGeorgraphy",
		"pk":507,
		"fields":{
			"area_id":507,
			"area_type_id":"ward",
			"area_name":"Chitongo",
			"parent_area_id":201
		}
		
	},
	{
		"model":"ovc_org.SetupGeorgraphy",
		"pk":508,
		"fields":{
			"area_id":508,
			"area_type_id":"ward",
			"area_name":"Mandondo",
			"parent_area_id":201
		}
		
	},
	{
		"model":"ovc_org.SetupGeorgraphy",
		"pk":509,
		"fields":{
			"area_id":509,
			"area_type_id":"ward",
			"area_name":"Nakamboma",
			"parent_area_id":201
		}
		
	},
	{
		"model":"ovc_org.SetupGeorgraphy",
		"pk":510,
		"fields":{
			"area_id":510,
			"area_type_id":"ward",
			"area_name":"Mbeza",
			"parent_area_id":201
		}
		
	},
	{
		"model":"ovc_org.SetupGeorgraphy",
		"pk":511,
		"fields":{
			"area_id":511,
			"area_type_id":"ward",
			"area_name":"Ndema",
			"parent_area_id":201
		}
		
	},
	{
		"model":"ovc_org.SetupGeorgraphy",
		"pk":512,
		"fields":{
			"area_id":512,
			"area_type_id":"ward",
			"area_name":"Namakube",
			"parent_area_id":201
		}
		
	},
	{
		"model":"ovc_org.SetupGeorgraphy",
		"pk":513,
		"fields":{
			"area_id":513,
			"area_type_id":"ward",
			"area_name":"Itapa",
			"parent_area_id":201
		}
		
	},
	{
		"model":"ovc_org.SetupGeorgraphy",
		"pk":514,
		"fields":{
			"area_id":514,
			"area_type_id":"ward",
			"area_name":"Moobola",
			"parent_area_id":201
		}
		
	},
	{
		"model":"ovc_org.SetupGeorgraphy",
		"pk":515,
		"fields":{
			"area_id":515,
			"area_type_id":"ward",
			"area_name":"Itawa",
			"parent_area_id":202
		}
		
	},
	{
		"model":"ovc_org.SetupGeorgraphy",
		"pk":516,
		"fields":{
			"area_id":516,
			"area_type_id":"ward",
			"area_name":"Munkulungwe",
			"parent_area_id":202
		}
		
	},
	{
		"model":"ovc_org.SetupGeorgraphy",
		"pk":517,
		"fields":{
			"area_id":517,
			"area_type_id":"ward",
			"area_name":"Twashuka",
			"parent_area_id":202
		}
		
	},
	{
		"model":"ovc_org.SetupGeorgraphy",
		"pk":518,
		"fields":{
			"area_id":518,
			"area_type_id":"ward",
			"area_name":"Kavu",
			"parent_area_id":202
		}
		
	},
	{
		"model":"ovc_org.SetupGeorgraphy",
		"pk":519,
		"fields":{
			"area_id":519,
			"area_type_id":"ward",
			"area_name":"Chichele",
			"parent_area_id":202
		}
		
	},
	{
		"model":"ovc_org.SetupGeorgraphy",
		"pk":520,
		"fields":{
			"area_id":520,
			"area_type_id":"ward",
			"area_name":"Kantolomba",
			"parent_area_id":202
		}
		
	},
	{
		"model":"ovc_org.SetupGeorgraphy",
		"pk":521,
		"fields":{
			"area_id":521,
			"area_type_id":"ward",
			"area_name":"Mushili",
			"parent_area_id":202
		}
		
	},
	{
		"model":"ovc_org.SetupGeorgraphy",
		"pk":522,
		"fields":{
			"area_id":522,
			"area_type_id":"ward",
			"area_name":"Pamodzi",
			"parent_area_id":203
		}
		
	},
	{
		"model":"ovc_org.SetupGeorgraphy",
		"pk":523,
		"fields":{
			"area_id":523,
			"area_type_id":"ward",
			"area_name":"Kawama",
			"parent_area_id":203
		}
		
	},
	{
		"model":"ovc_org.SetupGeorgraphy",
		"pk":524,
		"fields":{
			"area_id":524,
			"area_type_id":"ward",
			"area_name":"Fibobe",
			"parent_area_id":203
		}
		
	},
	{
		"model":"ovc_org.SetupGeorgraphy",
		"pk":525,
		"fields":{
			"area_id":525,
			"area_type_id":"ward",
			"area_name":"Chifubu",
			"parent_area_id":203
		}
		
	},
	{
		"model":"ovc_org.SetupGeorgraphy",
		"pk":526,
		"fields":{
			"area_id":526,
			"area_type_id":"ward",
			"area_name":"Kamba",
			"parent_area_id":203
		}
		
	},
	{
		"model":"ovc_org.SetupGeorgraphy",
		"pk":527,
		"fields":{
			"area_id":527,
			"area_type_id":"ward",
			"area_name":"Lubuto",
			"parent_area_id":204
		}
		
	},
	{
		"model":"ovc_org.SetupGeorgraphy",
		"pk":528,
		"fields":{
			"area_id":528,
			"area_type_id":"ward",
			"area_name":"Mukuba",
			"parent_area_id":204
		}
		
	},
	{
		"model":"ovc_org.SetupGeorgraphy",
		"pk":529,
		"fields":{
			"area_id":529,
			"area_type_id":"ward",
			"area_name":"Toka",
			"parent_area_id":204
		}
		
	},
	{
		"model":"ovc_org.SetupGeorgraphy",
		"pk":530,
		"fields":{
			"area_id":530,
			"area_type_id":"ward",
			"area_name":"Kaloko",
			"parent_area_id":204
		}
		
	},
	{
		"model":"ovc_org.SetupGeorgraphy",
		"pk":531,
		"fields":{
			"area_id":531,
			"area_type_id":"ward",
			"area_name":"Kabushi",
			"parent_area_id":204
		}
		
	},
	{
		"model":"ovc_org.SetupGeorgraphy",
		"pk":532,
		"fields":{
			"area_id":532,
			"area_type_id":"ward",
			"area_name":"Kafubu",
			"parent_area_id":204
		}
		
	},
	{
		"model":"ovc_org.SetupGeorgraphy",
		"pk":533,
		"fields":{
			"area_id":533,
			"area_type_id":"ward",
			"area_name":"Skyways",
			"parent_area_id":204
		}
		
	},
	{
		"model":"ovc_org.SetupGeorgraphy",
		"pk":534,
		"fields":{
			"area_id":534,
			"area_type_id":"ward",
			"area_name":"Masala",
			"parent_area_id":204
		}
		
	},
	{
		"model":"ovc_org.SetupGeorgraphy",
		"pk":535,
		"fields":{
			"area_id":535,
			"area_type_id":"ward",
			"area_name":"Kansenshi",
			"parent_area_id":205
		}
		
	},
	{
		"model":"ovc_org.SetupGeorgraphy",
		"pk":536,
		"fields":{
			"area_id":536,
			"area_type_id":"ward",
			"area_name":"Nkwazi",
			"parent_area_id":205
		}
		
	},
	{
		"model":"ovc_org.SetupGeorgraphy",
		"pk":537,
		"fields":{
			"area_id":537,
			"area_type_id":"ward",
			"area_name":"Yengwe",
			"parent_area_id":205
		}
		
	},
	{
		"model":"ovc_org.SetupGeorgraphy",
		"pk":538,
		"fields":{
			"area_id":538,
			"area_type_id":"ward",
			"area_name":"Chipulukusu",
			"parent_area_id":205
		}
		
	},
	{
		"model":"ovc_org.SetupGeorgraphy",
		"pk":539,
		"fields":{
			"area_id":539,
			"area_type_id":"ward",
			"area_name":"Kanini",
			"parent_area_id":205
		}
		
	},
	{
		"model":"ovc_org.SetupGeorgraphy",
		"pk":540,
		"fields":{
			"area_id":540,
			"area_type_id":"ward",
			"area_name":"Twapia",
			"parent_area_id":205
		}
		
	},
	{
		"model":"ovc_org.SetupGeorgraphy",
		"pk":541,
		"fields":{
			"area_id":541,
			"area_type_id":"ward",
			"area_name":"Dag Hammerskjoeld",
			"parent_area_id":205
		}
		
	},
	{
		"model":"ovc_org.SetupGeorgraphy",
		"pk":542,
		"fields":{
			"area_id":542,
			"area_type_id":"ward",
			"area_name":"Kaniki",
			"parent_area_id":205
		}
		
	},
	{
		"model":"ovc_org.SetupGeorgraphy",
		"pk":543,
		"fields":{
			"area_id":543,
			"area_type_id":"ward",
			"area_name":"Nkoloma",
			"parent_area_id":206
		}
		
	},
	{
		"model":"ovc_org.SetupGeorgraphy",
		"pk":544,
		"fields":{
			"area_id":544,
			"area_type_id":"ward",
			"area_name":"Chawama",
			"parent_area_id":206
		}
		
	},
	{
		"model":"ovc_org.SetupGeorgraphy",
		"pk":545,
		"fields":{
			"area_id":545,
			"area_type_id":"ward",
			"area_name":"John Howard",
			"parent_area_id":206
		}
		
	},
	{
		"model":"ovc_org.SetupGeorgraphy",
		"pk":546,
		"fields":{
			"area_id":546,
			"area_type_id":"ward",
			"area_name":"Lilayi",
			"parent_area_id":206
		}
		
	},
	{
		"model":"ovc_org.SetupGeorgraphy",
		"pk":547,
		"fields":{
			"area_id":547,
			"area_type_id":"ward",
			"area_name":"Kamwala",
			"parent_area_id":207
		}
		
	},
	{
		"model":"ovc_org.SetupGeorgraphy",
		"pk":548,
		"fields":{
			"area_id":548,
			"area_type_id":"ward",
			"area_name":"Kabwata",
			"parent_area_id":207
		}
		
	},
	{
		"model":"ovc_org.SetupGeorgraphy",
		"pk":549,
		"fields":{
			"area_id":549,
			"area_type_id":"ward",
			"area_name":"Libala",
			"parent_area_id":207
		}
		
	},
	{
		"model":"ovc_org.SetupGeorgraphy",
		"pk":550,
		"fields":{
			"area_id":550,
			"area_type_id":"ward",
			"area_name":"Chilenje",
			"parent_area_id":207
		}
		
	},
	{
		"model":"ovc_org.SetupGeorgraphy",
		"pk":551,
		"fields":{
			"area_id":551,
			"area_type_id":"ward",
			"area_name":"Kamulanga",
			"parent_area_id":207
		}
		
	},
	{
		"model":"ovc_org.SetupGeorgraphy",
		"pk":552,
		"fields":{
			"area_id":552,
			"area_type_id":"ward",
			"area_name":"Kanyama",
			"parent_area_id":208
		}
		
	},
	{
		"model":"ovc_org.SetupGeorgraphy",
		"pk":553,
		"fields":{
			"area_id":553,
			"area_type_id":"ward",
			"area_name":"Harry Mwaanga Nkumbula",
			"parent_area_id":208
		}
		
	},
	{
		"model":"ovc_org.SetupGeorgraphy",
		"pk":554,
		"fields":{
			"area_id":554,
			"area_type_id":"ward",
			"area_name":"Munkolo",
			"parent_area_id":208
		}
		
	},
	{
		"model":"ovc_org.SetupGeorgraphy",
		"pk":555,
		"fields":{
			"area_id":555,
			"area_type_id":"ward",
			"area_name":"Silwizya",
			"parent_area_id":209
		}
		
	},
	{
		"model":"ovc_org.SetupGeorgraphy",
		"pk":556,
		"fields":{
			"area_id":556,
			"area_type_id":"ward",
			"area_name":"Independence",
			"parent_area_id":209
		}
		
	},
	{
		"model":"ovc_org.SetupGeorgraphy",
		"pk":557,
		"fields":{
			"area_id":557,
			"area_type_id":"ward",
			"area_name":"Lubwa",
			"parent_area_id":209
		}
		
	},
	{
		"model":"ovc_org.SetupGeorgraphy",
		"pk":558,
		"fields":{
			"area_id":558,
			"area_type_id":"ward",
			"area_name":"Kabulonga",
			"parent_area_id":209
		}
		
	},
	{
		"model":"ovc_org.SetupGeorgraphy",
		"pk":559,
		"fields":{
			"area_id":559,
			"area_type_id":"ward",
			"area_name":"Roma",
			"parent_area_id":210
		}
		
	},
	{
		"model":"ovc_org.SetupGeorgraphy",
		"pk":560,
		"fields":{
			"area_id":560,
			"area_type_id":"ward",
			"area_name":"Mulungushi",
			"parent_area_id":210
		}
		
	},
	{
		"model":"ovc_org.SetupGeorgraphy",
		"pk":561,
		"fields":{
			"area_id":561,
			"area_type_id":"ward",
			"area_name":"Ngwerere",
			"parent_area_id":210
		}
		
	},
	{
		"model":"ovc_org.SetupGeorgraphy",
		"pk":562,
		"fields":{
			"area_id":562,
			"area_type_id":"ward",
			"area_name":"Chaisa",
			"parent_area_id":210
		}
		
	},
	{
		"model":"ovc_org.SetupGeorgraphy",
		"pk":563,
		"fields":{
			"area_id":563,
			"area_type_id":"ward",
			"area_name":"Justine Kabwe",
			"parent_area_id":210
		}
		
	},
	{
		"model":"ovc_org.SetupGeorgraphy",
		"pk":564,
		"fields":{
			"area_id":564,
			"area_type_id":"ward",
			"area_name":"Raphael Chota",
			"parent_area_id":210
		}
		
	},
	{
		"model":"ovc_org.SetupGeorgraphy",
		"pk":565,
		"fields":{
			"area_id":565,
			"area_type_id":"ward",
			"area_name":"Mpulungu",
			"parent_area_id":210
		}
		
	},
	{
		"model":"ovc_org.SetupGeorgraphy",
		"pk":566,
		"fields":{
			"area_id":566,
			"area_type_id":"ward",
			"area_name":"Muchinga",
			"parent_area_id":211
		}
		
	},
	{
		"model":"ovc_org.SetupGeorgraphy",
		"pk":567,
		"fields":{
			"area_id":567,
			"area_type_id":"ward",
			"area_name":"Kapwepwe",
			"parent_area_id":211
		}
		
	},
	{
		"model":"ovc_org.SetupGeorgraphy",
		"pk":568,
		"fields":{
			"area_id":568,
			"area_type_id":"ward",
			"area_name":"Lima",
			"parent_area_id":211
		}
		
	},
	{
		"model":"ovc_org.SetupGeorgraphy",
		"pk":569,
		"fields":{
			"area_id":569,
			"area_type_id":"ward",
			"area_name":"Mwembeshi",
			"parent_area_id":211
		}
		
	},
	{
		"model":"ovc_org.SetupGeorgraphy",
		"pk":570,
		"fields":{
			"area_id":570,
			"area_type_id":"ward",
			"area_name":"Matero",
			"parent_area_id":211
		}
		
	},
	{
		"model":"ovc_org.SetupGeorgraphy",
		"pk":571,
		"fields":{
			"area_id":571,
			"area_type_id":"ward",
			"area_name":"Chainda",
			"parent_area_id":212
		}
		
	},
	{
		"model":"ovc_org.SetupGeorgraphy",
		"pk":572,
		"fields":{
			"area_id":572,
			"area_type_id":"ward",
			"area_name":"Mtendere",
			"parent_area_id":212
		}
		
	},
	{
		"model":"ovc_org.SetupGeorgraphy",
		"pk":573,
		"fields":{
			"area_id":573,
			"area_type_id":"ward",
			"area_name":"Kalingalinga",
			"parent_area_id":212
		}
		
	},
	{
		"model":"ovc_org.SetupGeorgraphy",
		"pk":574,
		"fields":{
			"area_id":574,
			"area_type_id":"ward",
			"area_name":"Chakunkula",
			"parent_area_id":212
		}
		
	},
	{
		"model":"ovc_org.SetupGeorgraphy",
		"pk":575,
		"fields":{
			"area_id":575,
			"area_type_id":"ward",
			"area_name":"Munali",
			"parent_area_id":212
		}
		
	}
	
]