[
	{
		"model":"ovc_org.SetUpList",
		"pk":1,
		"fields":{
			"item_id":"TNRS",
			"item_description":"Residential institution with children",
			"item_description_short":"Residential institution",
			"item_category":"Organisational unit type",
			"the_order":1,
			"user_configurable":,
			"sms_keyword":
		}
		
	},
	{
		"model":"ovc_org.SetUpList",
		"pk":2,
		"fields":{
			"item_id":"TNCB",
			"item_description":"Community based organisation including community level faith based organisations",
			"item_description_short":"CBO",
			"item_category":"Organisational unit type",
			"the_order":2,
			"user_configurable":,
			"sms_keyword":
		}
		
	},
	{
		"model":"ovc_org.SetUpList",
		"pk":3,
		"fields":{
			"item_id":"TNCW",
			"item_description":"CWAC",
			"item_description_short":"CWAC",
			"item_category":"Organisational unit type",
			"the_order":3,
			"user_configurable":,
			"sms_keyword":
		}
		
	},
	{
		"model":"ovc_org.SetUpList",
		"pk":4,
		"fields":{
			"item_id":"TNCM",
			"item_description":"Community level committee (excluding CWACs)",
			"item_description_short":"Committee - community",
			"item_category":"Organisational unit type",
			"the_order":4,
			"user_configurable":,
			"sms_keyword":
		}
		
	},
	{
		"model":"ovc_org.SetUpList",
		"pk":5,
		"fields":{
			"item_id":"TNGS",
			"item_description":"Sub-district unit of Government institution",
			"item_description_short":"Government - sub-district",
			"item_category":"Organisational unit type",
			"the_order":5,
			"user_configurable":,
			"sms_keyword":
		}
		
	},
	{
		"model":"ovc_org.SetUpList",
		"pk":6,
		"fields":{
			"item_id":"TNND",
			"item_description":"NGO/private unit covering one district or part of one district",
			"item_description_short":"NGO/private - low level",
			"item_category":"Organisational unit type",
			"the_order":6,
			"user_configurable":,
			"sms_keyword":
		}
		
	},
	{
		"model":"ovc_org.SetUpList",
		"pk":7,
		"fields":{
			"item_id":"TNCD",
			"item_description":"District level committee",
			"item_description_short":"Committee - district",
			"item_category":"Organisational unit type",
			"the_order":7,
			"user_configurable":,
			"sms_keyword":
		}
		
	},
	{
		"model":"ovc_org.SetUpList",
		"pk":8,
		"fields":{
			"item_id":"TNGD",
			"item_description":"District office of Government institution",
			"item_description_short":"Government - district",
			"item_category":"Organisational unit type",
			"the_order":8,
			"user_configurable":,
			"sms_keyword":
		}
		
	},
	{
		"model":"ovc_org.SetUpList",
		"pk":9,
		"fields":{
			"item_id":"TNNM",
			"item_description":"NGO/private unit not HQ but covering multiple districts",
			"item_description_short":"NGO/private - mid level",
			"item_category":"Organisational unit type",
			"the_order":9,
			"user_configurable":,
			"sms_keyword":
		}
		
	},
	{
		"model":"ovc_org.SetUpList",
		"pk":10,
		"fields":{
			"item_id":"TNCP",
			"item_description":"Provincial level committee",
			"item_description_short":"Committee - province",
			"item_category":"Organisational unit type",
			"the_order":10,
			"user_configurable":,
			"sms_keyword":
		}
		
	},
	{
		"model":"ovc_org.SetUpList",
		"pk":11,
		"fields":{
			"item_id":"TNGP",
			"item_description":"provincial office of Government institution",
			"item_description_short":"Government - province",
			"item_category":"Organisational unit type",
			"the_order":11,
			"user_configurable":,
			"sms_keyword":
		}
		
	},
	{
		"model":"ovc_org.SetUpList",
		"pk":12,
		"fields":{
			"item_id":"TNNH",
			"item_description":"NGO/private national HQ unit",
			"item_description_short":"NGO/private - national",
			"item_category":"Organisational unit type",
			"the_order":12,
			"user_configurable":,
			"sms_keyword":
		}
		
	},
	{
		"model":"ovc_org.SetUpList",
		"pk":13,
		"fields":{
			"item_id":"TNGN",
			"item_description":"National level Government institution",
			"item_description_short":"Government - national",
			"item_category":"Organisational unit type",
			"the_order":13,
			"user_configurable":,
			"sms_keyword":
		}
		
	},
	{
		"model":"ovc_org.SetUpList",
		"pk":14,
		"fields":{
			"item_id":"INGO",
			"item_description":"NGO registration number",
			"item_description_short":,
			"item_category":"Organisational unit ID - external",
			"the_order":1,
			"user_configurable":,
			"sms_keyword":
		}
		
	},
	{
		"model":"ovc_org.SetUpList",
		"pk":15,
		"fields":{
			"item_id":"ICOM",
			"item_description":"Company registration number",
			"item_description_short":,
			"item_category":"Organisational unit ID - external",
			"the_order":2,
			"user_configurable":,
			"sms_keyword":
		}
		
	},
	{
		"model":"ovc_org.SetUpList",
		"pk":16,
		"fields":{
			"item_id":"ITRU",
			"item_description":"Trust registration number",
			"item_description_short":,
			"item_category":"Organisational unit ID - external",
			"the_order":3,
			"user_configurable":,
			"sms_keyword":
		}
		
	}
]